arcgis R api prototype
…
FeatureLayer

stop being lazy (bring into memory)

collect(qry)

Simple feature collection with 58 features and 3 fields
Geometry type: MULTIPOLYGON
Dimension:     XY
Bounding box:  xmin: -124.3926 ymin: 32.53578 xmax: -114.1252 ymax: 42.00219
Geodetic CRS:  WGS 84
# A tibble: 58 × 4
   STATE_NAME STATE_FIPS STATE_ABBR                           geometry
 *                                   
 1 California 06         CA         (((-121.4721 37.47772, -121.8587 …
 2 California 06         CA         (((-120.0152 38.43224, -120.05 38…
 3 California 06         CA         (((-120.9838 38.22236, -121.0162 …
 4 California 06         CA         (((-121.6148 39.30518, -121.8968 …
 5 California 06         CA         (((-120.6423 37.82521, -120.9193 …
 6 California 06         CA         (((-122.3475 38.9245, -122.4086 3…
 7 California 06         CA         (((-122.3076 37.89176, -122.3715 …
 8 California 06         CA         (((-123.6481 41.37431, -123.7648 …
 9 California 06         CA         (((-121.0163 38.50527, -121.1123 …
10 California 06         CA         (((-120.6636 36.27876, -120.6663 …
# … with 48 more rows
…
