What the Package Does (Title Case) • arcgis
…
FeatureLayer objects are lists that contain metadata from the FeatureServer. The data that is used to create the FeatureLayer is taken directly from the url when displayed in json format. FeatureLayers are intended to work somewhat similarly to a lazy table where data is only brought into memory when explicitly requested.

The collect() function will fetch data from the REST endpoint and write it to the appropriate type—either an sf object or a data frame.

county_sf <- collect(county_fl)

county_sf
#> Simple feature collection with 3142 features and 12 fields
#> Geometry type: MULTIPOLYGON
#> Dimension:     XY
#> Bounding box:  xmin: -178.2176 ymin: 18.92179 xmax: -66.96927 ymax: 71.40624
#> Geodetic CRS:  WGS 84
#> # A tibble: 3,142 × 13
#>    OBJECTID NAME     STATE…¹ STATE…² FIPS   SQMI POPUL…³ POP_S…⁴ STATE…⁵ COUNT…⁶
#>  *    <int> <chr>    <chr>   <chr>   <chr> <dbl>   <int>   <dbl> <chr>   <chr>  
#>  1        1 Autauga… Alabama 01      01001  604.   58805    97.3 AL      001    
#>  2        2 Baldwin… Alabama 01      01003 1633.  231767   142.  AL      003    
#>  3        3 Barbour… Alabama 01      01005  905.   25223    27.9 AL      005    
#>  4        4 Bibb Co… Alabama 01      01007  626.   22293    35.6 AL      007    
#>  5        5 Blount … Alabama 01      01009  651.   59134    90.9 AL      009    
#>  6        6 Bullock… Alabama 01      01011  625.   10357    16.6 AL      011    
#>  7        7 Butler … Alabama 01      01013  778.   19051    24.5 AL      013    
#>  8        8 Calhoun… Alabama 01      01015  612.  116441   190.  AL      015    
#>  9        9 Chamber… Alabama 01      01017  603.   34772    57.7 AL      017    
#> 10       10 Cheroke… Alabama 01      01019  600.   24971    41.6 AL      019    
#> # … with 3,132 more rows, 3 more variables: Shape__Area <dbl>,
#> #   Shape__Length <dbl>, geometry <MULTIPOLYGON [°]>, and abbreviated variable
#> #   names ¹​STATE_NAME, ²​STATE_FIPS, ³​POPULATION, ⁴​POP_SQMI, ⁵​STATE_ABBR,
#> #   ⁶​COUNTY_FIPS
…
Bring it into memory with collect().

res <- collect(county_query)
res
#> Simple feature collection with 67 features and 3 fields
#> Geometry type: POLYGON
#> Dimension:     XY
#> Bounding box:  xmin: -88.47295 ymin: 30.2336 xmax: -84.89402 ymax: 35.01603
#> Geodetic CRS:  WGS 84
#> # A tibble: 67 × 4
#>    STATE_NAME STATE_FIPS STATE_ABBR                                     geometry
#>  * <chr>      <chr>      <chr>                                     <POLYGON [°]>
#>  1 Alabama    01         AL         ((-86.82067 32.34731, -86.81446 32.37041, -…
#>  2 Alabama    01         AL         ((-87.97309 31.16482, -87.9371 31.17346, -8…
#>  3 Alabama    01         AL         ((-85.74337 31.62624, -85.7172 31.67924, -8…
#>  4 Alabama    01         AL         ((-87.41986 33.01177, -87.31532 33.0121, -8…
#>  5 Alabama    01         AL         ((-86.96799 33.86045, -86.92667 33.87228, -…
#>  6 Alabama    01         AL         ((-85.4114 32.15551, -85.41136 32.14547, -8…
#>  7 Alabama    01         AL         ((-86.44912 31.97123, -86.45245 31.85498, -…
#>  8 Alabama    01         AL         ((-85.79353 33.56343, -85.79315 33.59482, -…
#>  9 Alabama    01         AL         ((-85.58963 32.73135, -85.59478 33.11425, -…
#> 10 Alabama    01         AL         ((-85.41657 34.08692, -85.39574 33.95983, -…
#> # … with 57 more rows
…
